USP654 Lab 9: Variable Selection; DID regression
…
All possible subset

All subset regression tests all possible subsets of the set of potential independent variables. If there are K potential independent variables (besides the constant), then there are \(2^k\) distinct subsets of them to be tested.

if (!require(olsrr)) {
  install.packages("olsrr"); library(olsrr)
}

sfrmodel <- lm(TOTALVAL ~ BLDGSQFT + YEARBUILT + GIS_ACRES + dpioneer + dfwy + dpark + dmax + dbikehq, data = taxlot_sfr)

(sfrmodel_all_subset <- ols_all_subset(sfrmodel))

## # A tibble: 255 x 6
##    Index     N         Predictors `R-Square` `Adj. R-Square` `Mallow's Cp`
##    <int> <int>              <chr>      <chr>           <chr>         <chr>
##  1     1     1           BLDGSQFT    0.54149         0.54103     870.02214
##  2     2     1           dpioneer    0.28652         0.28581    1907.70119
##  3     3     1          GIS_ACRES    0.07168         0.07075    2782.03875
##  4     4     1          YEARBUILT    0.02638         0.02540    2966.41127
##  5     5     1               dfwy    0.01297         0.01198    3020.97363
##  6     6     1            dbikehq    0.00715         0.00615    3044.68719
##  7     7     1              dpark    0.00321         0.00221    3060.71980
##  8     8     1               dmax    0.00062        -0.00038    3071.25799
##  9     9     2  BLDGSQFT dpioneer    0.72394         0.72338     129.51151
## 10    10     2 BLDGSQFT YEARBUILT    0.60983         0.60905     593.89982
## # ... with 245 more rows
…
