STAT564 Lab 0: Introduction to R for Simple Linear Regression Analysis
…
Import Data

Download the data file here .

What format is the data file in?

Import the data in the file into R as a data frame:

my_df <- read_table2("TVads.txt")
my_df

## # A tibble: 21 x 3
##    Firm            Spend MilImp
##    <chr>           <dbl>  <dbl>
##  1 MILLER.LITE      50.1   32.1
##  2 PEPSI            74.1   99.6
##  3 STROH'S          19.3   11.7
##  4 FEDERAL.EXPRESS  22.9   21.9
##  5 BURGER.KING      82.4   60.8
##  6 COCO-COLA        40.1   78.6
##  7 MC.DONALD'S     186     92.4
##  8 MCI              26.9   50.7
##  9 DIET.COLA        20.4   21.4
## 10 FORD            166     40.1
## # ... with 11 more rows
…
